{
"type": "FeatureCollection",
"features": [
{ "type": "Feature", "properties": { "OBJECTID_1": 142, "KAB_1": "Kota Surakarta", "KECAMATAN": "Kec. Pasar Kliwon", "RW": "I", "RT": "2", "KELURAHAN": "Baluwarti", "Luas_Ha": 0.556, "Status": "Kumuh Cagar Budaya" }, "geometry": { "type": "Polygon", "coordinates": [ [ [ 110.825587381756321, -7.577100893400947 ], [ 110.825439428345348, -7.577580023384423 ], [ 110.825304813598493, -7.577552390889083 ], [ 110.825093110863477, -7.577502064315257 ], [ 110.824887206056701, -7.577450282710049 ], [ 110.825073443400512, -7.576576786026455 ], [ 110.825460173407123, -7.576663700251181 ], [ 110.825382102571055, -7.576956852542081 ], [ 110.825374369598478, -7.576988961652633 ], [ 110.825587381756321, -7.577100893400947 ] ] ] } },
{ "type": "Feature", "properties": { "OBJECTID_1": 143, "KAB_1": "Kota Surakarta", "KECAMATAN": "Kec. Pasar Kliwon", "RW": "I", "RT": "3", "KELURAHAN": "Baluwarti", "Luas_Ha": 0.225, "Status": "Kumuh Cagar Budaya" }, "geometry": { "type": "Polygon", "coordinates": [ [ [ 110.825439428345348, -7.577580023384423 ], [ 110.825587381756321, -7.577100893400947 ], [ 110.825965565983239, -7.577299617582306 ], [ 110.82584683599022, -7.577663652035542 ], [ 110.825439428345348, -7.577580023384423 ] ] ] } },
{ "type": "Feature", "properties": { "OBJECTID_1": 146, "KAB_1": "Kota Surakarta", "KECAMATAN": "Kec. Pasar Kliwon", "RW": "II", "RT": "4", "KELURAHAN": "Baluwarti", "Luas_Ha": 0.109, "Status": "Kumuh Cagar Budaya" }, "geometry": { "type": "Polygon", "coordinates": [ [ [ 110.824704084190827, -7.575645292913726 ], [ 110.824669015141282, -7.575806487529986 ], [ 110.824164669908043, -7.575677359557559 ], [ 110.824122466210952, -7.575666552814202 ], [ 110.824168301397449, -7.575518797255492 ], [ 110.824202580384181, -7.575526890705923 ], [ 110.824704084190827, -7.575645292913726 ] ] ] } },
{ "type": "Feature", "properties": { "OBJECTID_1": 147, "KAB_1": "Kota Surakarta", "KECAMATAN": "Kec. Pasar Kliwon", "RW": "III", "RT": "3", "KELURAHAN": "Baluwarti", "Luas_Ha": 0.359, "Status": "Kumuh Cagar Budaya" }, "geometry": { "type": "Polygon", "coordinates": [ [ [ 110.8247012323192, -7.577506245948185 ], [ 110.824510348829932, -7.578276393501269 ], [ 110.824153782906919, -7.578188705428701 ], [ 110.824327405445061, -7.577430272487522 ], [ 110.8247012323192, -7.577506245948185 ] ] ] } },
{ "type": "Feature", "properties": { "OBJECTID_1": 243, "KAB_1": "Kota Surakarta", "KECAMATAN": "Kec. Pasar Kliwon", "RW": "IV", "RT": "2", "KELURAHAN": "Baluwarti", "Luas_Ha": 0.342, "Status": "Kumuh Cagar Budaya" }, "geometry": { "type": "Polygon", "coordinates": [ [ [ 110.824583426321837, -7.579909958256013 ], [ 110.824541854389508, -7.579905060446306 ], [ 110.824470778636467, -7.580199062904101 ], [ 110.824459440577243, -7.580245962051918 ], [ 110.823720179928543, -7.580055413413747 ], [ 110.823738314024837, -7.579940315239304 ], [ 110.8237393416223, -7.579927970095826 ], [ 110.823757051658319, -7.579850251258633 ], [ 110.823794059321358, -7.579700862172797 ], [ 110.82458500978538, -7.579903884712086 ], [ 110.824583426321837, -7.579909958256013 ] ] ] } },
{ "type": "Feature", "properties": { "OBJECTID_1": 245, "KAB_1": "Kota Surakarta", "KECAMATAN": "Kec. Pasar Kliwon", "RW": "IV", "RT": "3", "KELURAHAN": "Baluwarti", "Luas_Ha": 0.102, "Status": "Kumuh Cagar Budaya" }, "geometry": { "type": "Polygon", "coordinates": [ [ [ 110.824583426321837, -7.579909958256013 ], [ 110.824555343466756, -7.580017614188926 ], [ 110.824902656751775, -7.580117165282278 ], [ 110.824857658392062, -7.5803088859942 ], [ 110.824499331376344, -7.580207169406446 ], [ 110.824470778636467, -7.580199062904101 ], [ 110.824541854389508, -7.579905060446306 ], [ 110.824583426321837, -7.579909958256013 ] ] ] } },
{ "type": "Feature", "properties": { "OBJECTID_1": 251, "KAB_1": "Kota Surakarta", "KECAMATAN": "Kec. Pasar Kliwon", "RW": "VI", "RT": "1", "KELURAHAN": "Baluwarti", "Luas_Ha": 0.159, "Status": "Kumuh Cagar Budaya" }, "geometry": { "type": "Polygon", "coordinates": [ [ [ 110.826680429116024, -7.580163205635701 ], [ 110.826760333021724, -7.58019364092144 ], [ 110.826664356270243, -7.580459842773607 ], [ 110.826663066481785, -7.580459294091018 ], [ 110.826194611199568, -7.580292525436203 ], [ 110.826234319847231, -7.580149199629443 ], [ 110.826255523159531, -7.580157647724245 ], [ 110.826274740730369, -7.580083461720165 ], [ 110.826591327785493, -7.580141028102675 ], [ 110.82665368571493, -7.580153019486791 ], [ 110.826680429116024, -7.580163205635701 ] ] ] } },
{ "type": "Feature", "properties": { "OBJECTID_1": 252, "KAB_1": "Kota Surakarta", "KECAMATAN": "Kec. Pasar Kliwon", "RW": "VI", "RT": "2", "KELURAHAN": "Baluwarti", "Luas_Ha": 0.197, "Status": "Kumuh Cagar Budaya" }, "geometry": { "type": "Polygon", "coordinates": [ [ [ 110.826680429116024, -7.580163205635701 ], [ 110.82665368571493, -7.580153019486791 ], [ 110.826591327785493, -7.580141028102675 ], [ 110.826274740730369, -7.580083461720165 ], [ 110.826255523159531, -7.580157647724245 ], [ 110.826234319847231, -7.580149199629443 ], [ 110.826359101546714, -7.579698806496787 ], [ 110.826760261729333, -7.579811811347101 ], [ 110.826680429116024, -7.580163205635701 ] ] ] } },
{ "type": "Feature", "properties": { "OBJECTID_1": 256, "KAB_1": "Kota Surakarta", "KECAMATAN": "Kec. Pasar Kliwon", "RW": "VIII", "RT": "1", "KELURAHAN": "Baluwarti", "Luas_Ha": 0.207, "Status": "Kumuh Cagar Budaya" }, "geometry": { "type": "Polygon", "coordinates": [ [ [ 110.829446518951585, -7.581499182089086 ], [ 110.829419560986253, -7.581736592026999 ], [ 110.829405223408514, -7.581846304333942 ], [ 110.82940217730885, -7.581869612986679 ], [ 110.829257832893461, -7.581821118501535 ], [ 110.828894965178335, -7.581699209197864 ], [ 110.828900451558596, -7.581667124472497 ], [ 110.828935394278872, -7.581462765246025 ], [ 110.829446534777276, -7.581458973988222 ], [ 110.829446518951585, -7.581499182089086 ] ] ] } },
{ "type": "Feature", "properties": { "OBJECTID_1": 257, "KAB_1": "Kota Surakarta", "KECAMATAN": "Kec. Pasar Kliwon", "RW": "VIII", "RT": "2", "KELURAHAN": "Baluwarti", "Luas_Ha": 0.068, "Status": "Kumuh Cagar Budaya" }, "geometry": { "type": "Polygon", "coordinates": [ [ [ 110.829405223408514, -7.581846304333942 ], [ 110.829419560986253, -7.581736592026999 ], [ 110.829446518951585, -7.581499182089086 ], [ 110.82958759070506, -7.581496852000557 ], [ 110.829581778221637, -7.581662121779535 ], [ 110.829578668407265, -7.58169763576302 ], [ 110.829546820325362, -7.581896567032189 ], [ 110.829405223408514, -7.581846304333942 ] ] ] } },
{ "type": "Feature", "properties": { "OBJECTID_1": 258, "KAB_1": "Kota Surakarta", "KECAMATAN": "Kec. Pasar Kliwon", "RW": "VIII", "RT": "3", "KELURAHAN": "Baluwarti", "Luas_Ha": 0.301, "Status": "Kumuh Cagar Budaya" }, "geometry": { "type": "Polygon", "coordinates": [ [ [ 110.82958759070506, -7.581496852000557 ], [ 110.829446518951585, -7.581499182089086 ], [ 110.829446534777276, -7.581458973988222 ], [ 110.828935394278872, -7.581462765246025 ], [ 110.828942898743719, -7.58141887939697 ], [ 110.829000613409022, -7.581043146692094 ], [ 110.82960113543372, -7.581111688960067 ], [ 110.829600973156332, -7.581116315768806 ], [ 110.82958759070506, -7.581496852000557 ] ] ] } },
{ "type": "Feature", "properties": { "OBJECTID_1": 259, "KAB_1": "Kota Surakarta", "KECAMATAN": "Kec. Pasar Kliwon", "RW": "XI", "RT": "2", "KELURAHAN": "Baluwarti", "Luas_Ha": 0.002, "Status": "Kumuh Cagar Budaya" }, "geometry": { "type": "Polygon", "coordinates": [ [ [ 110.830785128084159, -7.578262573425595 ], [ 110.830784521607498, -7.57826490517014 ], [ 110.830752131059953, -7.578257921967637 ], [ 110.830399572663993, -7.578185983668067 ], [ 110.830401314466371, -7.578178148060812 ], [ 110.830785128084159, -7.578262573425595 ] ] ] } },
{ "type": "Feature", "properties": { "OBJECTID_1": 261, "KAB_1": "Kota Surakarta", "KECAMATAN": "Kec. Pasar Kliwon", "RW": "XII", "RT": "1", "KELURAHAN": "Baluwarti", "Luas_Ha": 0.537, "Status": "Kumuh Cagar Budaya" }, "geometry": { "type": "Polygon", "coordinates": [ [ [ 110.830785128084159, -7.578262573425595 ], [ 110.830401314466371, -7.578178148060812 ], [ 110.830474059612001, -7.577850945650124 ], [ 110.83058198607506, -7.577870133775657 ], [ 110.830805427390302, -7.576903308153795 ], [ 110.831098023981525, -7.576972829363817 ], [ 110.831117556257126, -7.576977240384033 ], [ 110.830847664244914, -7.578021876393288 ], [ 110.830836077531117, -7.578066723163479 ], [ 110.830785128084159, -7.578262573425595 ] ] ] } }
]
}
