{
"type": "FeatureCollection",
"features": [
{ "type": "Feature", "properties": { "OBJECTID_1": 397, "KAB_1": "Kota Surakarta", "KECAMATAN": "Kec. Pasar Kliwon", "RW": "I", "RT": "2", "KELURAHAN": "Semanggi", "Luas_Ha": 0.242, "Status": "Kumuh Ilegal" }, "geometry": { "type": "Polygon", "coordinates": [ [ [ 110.838611963149333, -7.580516636619926 ], [ 110.838339070646768, -7.581148158423729 ], [ 110.838067379542565, -7.581063692727108 ], [ 110.838352546385323, -7.580404529290663 ], [ 110.838611963149333, -7.580516636619926 ] ] ] } },
{ "type": "Feature", "properties": { "OBJECTID_1": 399, "KAB_1": "Kota Surakarta", "KECAMATAN": "Kec. Pasar Kliwon", "RW": "I", "RT": "3", "KELURAHAN": "Semanggi", "Luas_Ha": 0.203, "Status": "Kumuh Ilegal" }, "geometry": { "type": "Polygon", "coordinates": [ [ [ 110.838339070646768, -7.581148158423729 ], [ 110.838244191485941, -7.581367721044597 ], [ 110.838121484178842, -7.581691278907583 ], [ 110.837840969051101, -7.581590760002975 ], [ 110.837898729160813, -7.581453528444359 ], [ 110.838067379542565, -7.581063692727108 ], [ 110.838339070646768, -7.581148158423729 ] ] ] } },
{ "type": "Feature", "properties": { "OBJECTID_1": 400, "KAB_1": "Kota Surakarta", "KECAMATAN": "Kec. Pasar Kliwon", "RW": "I", "RT": "4", "KELURAHAN": "Semanggi", "Luas_Ha": 0.26, "Status": "Kumuh Ilegal" }, "geometry": { "type": "Polygon", "coordinates": [ [ [ 110.838121484178842, -7.581691278907583 ], [ 110.837918196022713, -7.582227313661726 ], [ 110.837888418051776, -7.582313931399025 ], [ 110.837784959490349, -7.582301747188779 ], [ 110.837571668783781, -7.582230585640691 ], [ 110.837739335738902, -7.581832227758736 ], [ 110.837840969051101, -7.581590760002975 ], [ 110.838121484178842, -7.581691278907583 ] ] ] } },
{ "type": "Feature", "properties": { "OBJECTID_1": 401, "KAB_1": "Kota Surakarta", "KECAMATAN": "Kec. Pasar Kliwon", "RW": "I", "RT": "5", "KELURAHAN": "Semanggi", "Luas_Ha": 0.15, "Status": "Kumuh Ilegal" }, "geometry": { "type": "Polygon", "coordinates": [ [ [ 110.837888418051776, -7.582313931399025 ], [ 110.83776482917726, -7.582673424646782 ], [ 110.837756013294879, -7.582701728962773 ], [ 110.837753073146601, -7.582714417169695 ], [ 110.837753690884142, -7.582723086795607 ], [ 110.837680488416638, -7.58265711998604 ], [ 110.837550991230813, -7.582588861682619 ], [ 110.837445537471538, -7.582554493884294 ], [ 110.837460599586194, -7.582494470459305 ], [ 110.837571668783781, -7.582230585640691 ], [ 110.837784959490349, -7.582301747188779 ], [ 110.837888418051776, -7.582313931399025 ] ] ] } },
{ "type": "Feature", "properties": { "OBJECTID_1": 402, "KAB_1": "Kota Surakarta", "KECAMATAN": "Kec. Pasar Kliwon", "RW": "I", "RT": "6", "KELURAHAN": "Semanggi", "Luas_Ha": 0.285, "Status": "Kumuh Ilegal" }, "geometry": { "type": "Polygon", "coordinates": [ [ [ 110.837753690884142, -7.582723086795607 ], [ 110.837754047097945, -7.582728085580345 ], [ 110.837765779560442, -7.582747612377002 ], [ 110.837780446704329, -7.582764211270849 ], [ 110.837794135860918, -7.582782763670112 ], [ 110.83779510835268, -7.582800334393612 ], [ 110.83779020858789, -7.582821808859864 ], [ 110.83772151374167, -7.58296319642889 ], [ 110.837698292205602, -7.58304879985726 ], [ 110.837669978738646, -7.583141250785537 ], [ 110.837631758117439, -7.583321824805934 ], [ 110.837695374498807, -7.583342761285855 ], [ 110.837521943165015, -7.583296084085611 ], [ 110.837453596619483, -7.583260158904124 ], [ 110.837388860299328, -7.583191923834431 ], [ 110.837324484469846, -7.583081125271122 ], [ 110.837331513013311, -7.582931207242596 ], [ 110.837346148235639, -7.582895167422861 ], [ 110.837382529850487, -7.582805576161866 ], [ 110.837445537471538, -7.582554493884294 ], [ 110.837550991230813, -7.582588861682619 ], [ 110.837680488416638, -7.58265711998604 ], [ 110.837753690884142, -7.582723086795607 ] ] ] } },
{ "type": "Feature", "properties": { "OBJECTID_1": 426, "KAB_1": "Kota Surakarta", "KECAMATAN": "Kec. Pasar Kliwon", "RW": "IV", "RT": "2", "KELURAHAN": "Semanggi", "Luas_Ha": 0.231, "Status": "Kumuh Ilegal" }, "geometry": { "type": "Polygon", "coordinates": [ [ [ 110.839767444460037, -7.586162373667522 ], [ 110.839678326518026, -7.586485870997026 ], [ 110.839678374287814, -7.58635929097417 ], [ 110.838890557846369, -7.586162459517505 ], [ 110.838893587984515, -7.586149102861128 ], [ 110.838915654416468, -7.586151504525001 ], [ 110.838961411852281, -7.58591000953429 ], [ 110.839009400499634, -7.585933685411266 ], [ 110.839423104360421, -7.586077438758137 ], [ 110.839767444460037, -7.586162373667522 ] ] ] } },
{ "type": "Feature", "properties": { "OBJECTID_1": 428, "KAB_1": "Kota Surakarta", "KECAMATAN": "Kec. Pasar Kliwon", "RW": "IV", "RT": "3", "KELURAHAN": "Semanggi", "Luas_Ha": 0.549, "Status": "Kumuh Ilegal" }, "geometry": { "type": "Polygon", "coordinates": [ [ [ 110.838961411852281, -7.58591000953429 ], [ 110.838915654416468, -7.586151504525001 ], [ 110.838893587984515, -7.586149102861128 ], [ 110.838535309895605, -7.586073701680299 ], [ 110.838335286682465, -7.586023726803128 ], [ 110.838229864985905, -7.586003054376429 ], [ 110.838266433637529, -7.585847404220537 ], [ 110.838015027788529, -7.585674545122776 ], [ 110.837714803985605, -7.585429976013422 ], [ 110.837725038836496, -7.585386746834873 ], [ 110.837761054809746, -7.585286239978012 ], [ 110.83793510589166, -7.585149452528554 ], [ 110.838005247117707, -7.585245225533577 ], [ 110.838334940465785, -7.585547507891283 ], [ 110.8387605919512, -7.585810933617024 ], [ 110.838961411852281, -7.58591000953429 ] ] ] } },
{ "type": "Feature", "properties": { "OBJECTID_1": 492, "KAB_1": "Kota Surakarta", "KECAMATAN": "Kec. Pasar Kliwon", "RW": "XX", "RT": "3", "KELURAHAN": "Semanggi", "Luas_Ha": 0.127, "Status": "Kumuh Ilegal" }, "geometry": { "type": "Polygon", "coordinates": [ [ [ 110.837739335738902, -7.581832227758736 ], [ 110.837571668783781, -7.582230585640691 ], [ 110.837460599586194, -7.582494470459305 ], [ 110.837445537471538, -7.582554493884294 ], [ 110.837304817834621, -7.582513829736295 ], [ 110.837463309860183, -7.582144860725278 ], [ 110.83761816362744, -7.581790461095737 ], [ 110.837739335738902, -7.581832227758736 ] ] ] } },
{ "type": "Feature", "properties": { "OBJECTID_1": 493, "KAB_1": "Kota Surakarta", "KECAMATAN": "Kec. Pasar Kliwon", "RW": "XX", "RT": "4", "KELURAHAN": "Semanggi", "Luas_Ha": 0.125, "Status": "Kumuh Ilegal" }, "geometry": { "type": "Polygon", "coordinates": [ [ [ 110.838067379542565, -7.581063692727108 ], [ 110.837898729160813, -7.581453528444359 ], [ 110.837840969051101, -7.581590760002975 ], [ 110.837739335738902, -7.581832227758736 ], [ 110.83761816362744, -7.581790461095737 ], [ 110.837952069503103, -7.581026274797947 ], [ 110.838067379542565, -7.581063692727108 ] ] ] } },
{ "type": "Feature", "properties": { "OBJECTID_1": 494, "KAB_1": "Kota Surakarta", "KECAMATAN": "Kec. Pasar Kliwon", "RW": "XXII", "RT": "1", "KELURAHAN": "Semanggi", "Luas_Ha": 0.121, "Status": "Kumuh Ilegal" }, "geometry": { "type": "Polygon", "coordinates": [ [ [ 110.83839750154246, -7.580300615438068 ], [ 110.838352546385323, -7.580404529290663 ], [ 110.838067379542565, -7.581063692727108 ], [ 110.837952069503103, -7.581026274797947 ], [ 110.837980864181802, -7.580960374948374 ], [ 110.838289119368113, -7.580256159905884 ], [ 110.83839750154246, -7.580300615438068 ] ] ] } },
{ "type": "Feature", "properties": { "OBJECTID_1": 495, "KAB_1": "Kota Surakarta", "KECAMATAN": "Kec. Pasar Kliwon", "RW": "XXII", "RT": "2", "KELURAHAN": "Semanggi", "Luas_Ha": 0.104, "Status": "Kumuh Ilegal" }, "geometry": { "type": "Polygon", "coordinates": [ [ [ 110.838691981628173, -7.579608505332159 ], [ 110.83867783080612, -7.579641894092569 ], [ 110.838453876242738, -7.580170303235006 ], [ 110.83839750154246, -7.580300615438068 ], [ 110.838289119368113, -7.580256159905884 ], [ 110.838577320131748, -7.579597755436316 ], [ 110.838585507853168, -7.579573804558882 ], [ 110.838691981628173, -7.579608505332159 ] ] ] } },
{ "type": "Feature", "properties": { "OBJECTID_1": 427, "KAB_1": "Kota Surakarta", "KECAMATAN": "Kec. Pasar Kliwon", "RW": "IV", "RT": "3", "KELURAHAN": "Sangkrah", "Luas_Ha": 0.195, "Status": "Kumuh Ilegal" }, "geometry": { "type": "Polygon", "coordinates": [ [ [ 110.835182490824792, -7.574934268344503 ], [ 110.834974702308585, -7.575215613111366 ], [ 110.834963989219915, -7.575205326806882 ], [ 110.834924629082849, -7.575168267947347 ], [ 110.834896854789463, -7.575142117160985 ], [ 110.834663907692644, -7.574950920330355 ], [ 110.834616793762848, -7.574912250175212 ], [ 110.83461299665187, -7.574908975095246 ], [ 110.834778556524597, -7.574643953729128 ], [ 110.834989722648018, -7.574793790741444 ], [ 110.835145312774827, -7.574904193609581 ], [ 110.835182490824792, -7.574934268344503 ] ] ] } },
{ "type": "Feature", "properties": { "OBJECTID_1": 429, "KAB_1": "Kota Surakarta", "KECAMATAN": "Kec. Pasar Kliwon", "RW": "IV", "RT": "4", "KELURAHAN": "Sangkrah", "Luas_Ha": 0.441, "Status": "Kumuh Ilegal" }, "geometry": { "type": "Polygon", "coordinates": [ [ [ 110.835763944995875, -7.575404636356317 ], [ 110.835421388947864, -7.57596779807416 ], [ 110.835320681714762, -7.575756889400702 ], [ 110.835224263282342, -7.575562930347123 ], [ 110.835184548597923, -7.575483039089733 ], [ 110.835117435931494, -7.575362388395584 ], [ 110.835063731882002, -7.575301098833094 ], [ 110.834974702308585, -7.575215613111366 ], [ 110.835182490824792, -7.574934268344503 ], [ 110.8352801774802, -7.575013292337537 ], [ 110.835763944995875, -7.575404636356317 ] ] ] } },
{ "type": "Feature", "properties": { "OBJECTID_1": 345, "KAB_1": "Kota Surakarta", "KECAMATAN": "Kec. Banjarsari", "RW": "XV", "RT": null, "KELURAHAN": "Nusukan", "Luas_Ha": 0.422, "Status": "Kumuh Ilegal" }, "geometry": { "type": "Polygon", "coordinates": [ [ [ 110.821077704119631, -7.541290234564656 ], [ 110.821089192182555, -7.541328730551398 ], [ 110.821116370316034, -7.541419804788154 ], [ 110.821185386768022, -7.541586545365891 ], [ 110.821392344067249, -7.542086540853253 ], [ 110.821185259866638, -7.542116532317582 ], [ 110.821139685287847, -7.542130873743053 ], [ 110.821121738173474, -7.542148768760587 ], [ 110.821111788369421, -7.542127888107445 ], [ 110.820847130313595, -7.541485511168589 ], [ 110.820685466718643, -7.540939760915652 ], [ 110.820840166288136, -7.540918284658345 ], [ 110.820939722327523, -7.540910128196968 ], [ 110.820952424049096, -7.540909085902563 ], [ 110.820953454726904, -7.540909001294723 ], [ 110.821077704119631, -7.541290234564656 ] ] ] } },
{ "type": "Feature", "properties": { "OBJECTID_1": 37, "KAB_1": "Kota Surakarta", "KECAMATAN": "Kec. Banjarsari", "RW": "XIII", "RT": "2", "KELURAHAN": "Nusukan", "Luas_Ha": 0.128, "Status": "Kumuh Ilegal" }, "geometry": { "type": "Polygon", "coordinates": [ [ [ 110.826675272499301, -7.552155769144407 ], [ 110.826692548650257, -7.552439139013702 ], [ 110.826530413832572, -7.552433432855724 ], [ 110.826542514273982, -7.552136105366293 ], [ 110.826675272499301, -7.552155769144407 ] ] ] } },
{ "type": "Feature", "properties": { "OBJECTID_1": 37, "KAB_1": "Kota Surakarta", "KECAMATAN": "Kec. Banjarsari", "RW": "XIII", "RT": "2", "KELURAHAN": "Nusukan", "Luas_Ha": 0.128, "Status": "Kumuh Ilegal" }, "geometry": { "type": "Polygon", "coordinates": [ [ [ 110.825624689477323, -7.552419043279346 ], [ 110.82521577211088, -7.552426849127466 ], [ 110.824754864099518, -7.552406010420462 ], [ 110.824771268307387, -7.552285492050525 ], [ 110.825027782432301, -7.552331506333454 ], [ 110.825755671370786, -7.552417501690033 ], [ 110.825624689477323, -7.552419043279346 ] ] ] } },
{ "type": "Feature", "properties": { "OBJECTID_1": 39, "KAB_1": "Kota Surakarta", "KECAMATAN": "Kec. Banjarsari", "RW": "XIII", "RT": "5", "KELURAHAN": "Nusukan", "Luas_Ha": 0.083, "Status": "Kumuh Ilegal" }, "geometry": { "type": "Polygon", "coordinates": [ [ [ 110.826675272499301, -7.552155769144407 ], [ 110.826542514273982, -7.552136105366293 ], [ 110.826542675386236, -7.552132164216959 ], [ 110.82654372357915, -7.55210640427677 ], [ 110.826497936100822, -7.551654528743485 ], [ 110.826644310928728, -7.551647911118369 ], [ 110.826675272499301, -7.552155769144407 ] ] ] } },
{ "type": "Feature", "properties": { "OBJECTID_1": 346, "KAB_1": "Kota Surakarta", "KECAMATAN": "Kec. Banjarsari", "RW": "XV", "RT": "2", "KELURAHAN": "Nusukan", "Luas_Ha": 0.286, "Status": "Kumuh Ilegal" }, "geometry": { "type": "Polygon", "coordinates": [ [ [ 110.821787435059534, -7.542832938358398 ], [ 110.821497839181262, -7.542895380368915 ], [ 110.821375475242206, -7.542677958490324 ], [ 110.821123836156758, -7.542149922041418 ], [ 110.82112278695196, -7.542150968200532 ], [ 110.821121738173474, -7.542148768760587 ], [ 110.821139685287847, -7.542130873743053 ], [ 110.821185259866638, -7.542116532317582 ], [ 110.821392344067249, -7.542086540853253 ], [ 110.82139361228127, -7.542086356838665 ], [ 110.821445818045163, -7.542212480718915 ], [ 110.821730407434927, -7.542736142349775 ], [ 110.821787435059534, -7.542832938358398 ] ] ] } },
{ "type": "Feature", "properties": { "OBJECTID_1": 348, "KAB_1": "Kota Surakarta", "KECAMATAN": "Kec. Banjarsari", "RW": "XV", "RT": "4", "KELURAHAN": "Nusukan", "Luas_Ha": 0.096, "Status": "Kumuh Ilegal" }, "geometry": { "type": "Polygon", "coordinates": [ [ [ 110.822286216904374, -7.543670359366391 ], [ 110.822050387312018, -7.543773081486251 ], [ 110.822019413523478, -7.54377728327639 ], [ 110.821872870433239, -7.543541235631666 ], [ 110.821896986173229, -7.543543018411263 ], [ 110.822139435086171, -7.54343040125177 ], [ 110.822158816348917, -7.543463295700753 ], [ 110.822286216904374, -7.543670359366391 ] ] ] } },
{ "type": "Feature", "properties": { "OBJECTID_1": 349, "KAB_1": "Kota Surakarta", "KECAMATAN": "Kec. Banjarsari", "RW": "XV", "RT": "5", "KELURAHAN": "Nusukan", "Luas_Ha": 0.103, "Status": "Kumuh Ilegal" }, "geometry": { "type": "Polygon", "coordinates": [ [ [ 110.822442025339697, -7.543870584217388 ], [ 110.82223975184742, -7.544031639532042 ], [ 110.822195094049178, -7.544060262794849 ], [ 110.822019413523478, -7.54377728327639 ], [ 110.822050387312018, -7.543773081486251 ], [ 110.822286216904374, -7.543670359366391 ], [ 110.822386005030509, -7.543832545987016 ], [ 110.822410153282547, -7.543819110256696 ], [ 110.822442025339697, -7.543870584217388 ] ] ] } },
{ "type": "Feature", "properties": { "OBJECTID_1": 350, "KAB_1": "Kota Surakarta", "KECAMATAN": "Kec. Banjarsari", "RW": "XV", "RT": "7", "KELURAHAN": "Nusukan", "Luas_Ha": 0.202, "Status": "Kumuh Ilegal" }, "geometry": { "type": "Polygon", "coordinates": [ [ [ 110.822738323197953, -7.544353860883511 ], [ 110.822526872616635, -7.544452408589188 ], [ 110.822437176366876, -7.544469346444135 ], [ 110.822259861896811, -7.544164587916291 ], [ 110.822195094049178, -7.544060262794849 ], [ 110.82223975184742, -7.544031639532042 ], [ 110.822442025339697, -7.543870584217388 ], [ 110.822721793005655, -7.544322409500912 ], [ 110.822738323197953, -7.544353860883511 ] ] ] } },
{ "type": "Feature", "properties": { "OBJECTID_1": 351, "KAB_1": "Kota Surakarta", "KECAMATAN": "Kec. Banjarsari", "RW": "XVI", "RT": "7", "KELURAHAN": "Nusukan", "Luas_Ha": 0.067, "Status": "Kumuh Ilegal" }, "geometry": { "type": "Polygon", "coordinates": [ [ [ 110.822801623678359, -7.544529405790732 ], [ 110.822536788820841, -7.544640555145138 ], [ 110.822437176366876, -7.544469346444135 ], [ 110.822526872616635, -7.544452408589188 ], [ 110.822738323197953, -7.544353860883511 ], [ 110.822772303845866, -7.544418515268423 ], [ 110.822758170209042, -7.544451982269115 ], [ 110.822801623678359, -7.544529405790732 ] ] ] } },
{ "type": "Feature", "properties": { "OBJECTID_1": 352, "KAB_1": "Kota Surakarta", "KECAMATAN": "Kec. Banjarsari", "RW": "XVI", "RT": "8", "KELURAHAN": "Nusukan", "Luas_Ha": 0.416, "Status": "Kumuh Ilegal" }, "geometry": { "type": "Polygon", "coordinates": [ [ [ 110.823478423736319, -7.545569216532822 ], [ 110.82331583968643, -7.545709787158914 ], [ 110.823079564993066, -7.545482458073487 ], [ 110.822968095920814, -7.545345991960946 ], [ 110.822874614852367, -7.545209533107704 ], [ 110.822658908571569, -7.544850444247418 ], [ 110.822536788820841, -7.544640555145138 ], [ 110.822801623678359, -7.544529405790732 ], [ 110.822997666299045, -7.544878702790778 ], [ 110.823174422400882, -7.545180934336634 ], [ 110.823478423736319, -7.545569216532822 ] ] ] } },
{ "type": "Feature", "properties": { "OBJECTID_1": 354, "KAB_1": "Kota Surakarta", "KECAMATAN": "Kec. Banjarsari", "RW": "XVII", "RT": "4", "KELURAHAN": "Nusukan", "Luas_Ha": 0.296, "Status": "Kumuh Ilegal" }, "geometry": { "type": "Polygon", "coordinates": [ [ [ 110.82534026192576, -7.547404422540279 ], [ 110.825415970609384, -7.547485432653728 ], [ 110.825577658867232, -7.547680206013183 ], [ 110.825608967997127, -7.547722013283288 ], [ 110.825744904084942, -7.547992381219054 ], [ 110.825769821326148, -7.548041939908396 ], [ 110.825876266018511, -7.548272446096186 ], [ 110.825702505806873, -7.548295226291729 ], [ 110.82554573131597, -7.54805056335069 ], [ 110.825326404930749, -7.547738144739001 ], [ 110.825125033714784, -7.547508302402498 ], [ 110.824957481907276, -7.547335703888171 ], [ 110.82534026192576, -7.547404422540279 ] ] ] } },
{ "type": "Feature", "properties": { "OBJECTID_1": 355, "KAB_1": "Kota Surakarta", "KECAMATAN": "Kec. Banjarsari", "RW": "XVII", "RT": "5", "KELURAHAN": "Nusukan", "Luas_Ha": 0.611, "Status": "Kumuh Ilegal" }, "geometry": { "type": "Polygon", "coordinates": [ [ [ 110.82534026192576, -7.547404422540279 ], [ 110.824957481907276, -7.547335703888171 ], [ 110.82442849527645, -7.546790779275429 ], [ 110.824061314079003, -7.546427029582918 ], [ 110.823416039672935, -7.545806192441687 ], [ 110.823492568143124, -7.545726039496746 ], [ 110.823503610001723, -7.545598164816596 ], [ 110.823548977657865, -7.545647788871674 ], [ 110.824322152123756, -7.546390038036185 ], [ 110.824564889246702, -7.546635453234441 ], [ 110.825122295628347, -7.547171188668528 ], [ 110.82534026192576, -7.547404422540279 ] ] ] } },
{ "type": "Feature", "properties": { "OBJECTID_1": 356, "KAB_1": "Kota Surakarta", "KECAMATAN": "Kec. Banjarsari", "RW": "XVIII", "RT": "1", "KELURAHAN": "Nusukan", "Luas_Ha": 0.419, "Status": "Kumuh Ilegal" }, "geometry": { "type": "Polygon", "coordinates": [ [ [ 110.825838670069174, -7.548086550010792 ], [ 110.825966622710126, -7.548215051802937 ], [ 110.826081037611132, -7.548383452397278 ], [ 110.826251792271677, -7.548709614375043 ], [ 110.826404495841771, -7.549194327668277 ], [ 110.82644339698264, -7.549376835700303 ], [ 110.826497220852133, -7.54972688425409 ], [ 110.826454715190579, -7.5497315657153 ], [ 110.826513329422326, -7.550230450576519 ], [ 110.826622109240617, -7.550959066478978 ], [ 110.82657186634647, -7.5511055245393 ], [ 110.826469485241915, -7.550345511720617 ], [ 110.826414230419346, -7.549935333993312 ], [ 110.826364432589628, -7.549741209661391 ], [ 110.826246213484851, -7.549280362694695 ], [ 110.826126871435292, -7.548815133505538 ], [ 110.825876266018511, -7.548272446096186 ], [ 110.825769821326148, -7.548041939908396 ], [ 110.825744904084942, -7.547992381219054 ], [ 110.825838670069174, -7.548086550010792 ] ] ] } },
{ "type": "Feature", "properties": { "OBJECTID_1": 357, "KAB_1": "Kota Surakarta", "KECAMATAN": "Kec. Banjarsari", "RW": "XVIII", "RT": "2", "KELURAHAN": "Nusukan", "Luas_Ha": 0.048, "Status": "Kumuh Ilegal" }, "geometry": { "type": "Polygon", "coordinates": [ [ [ 110.826689864845889, -7.551589685709509 ], [ 110.826636220069247, -7.551583240166917 ], [ 110.826621482590454, -7.551473842805533 ], [ 110.82657186634647, -7.5511055245393 ], [ 110.826622109240617, -7.550959066478978 ], [ 110.826689142219166, -7.551408047676355 ], [ 110.82668549434409, -7.551533697397043 ], [ 110.826689864845889, -7.551589685709509 ] ] ] } },
{ "type": "Feature", "properties": { "OBJECTID_1": 361, "KAB_1": "Kota Surakarta", "KECAMATAN": "Kec. Banjarsari", "RW": "XIV", "RT": "3", "KELURAHAN": "Nusukan", "Luas_Ha": 0.156, "Status": "Kumuh Ilegal" }, "geometry": { "type": "Polygon", "coordinates": [ [ [ 110.82657186634647, -7.5511055245393 ], [ 110.826621482590454, -7.551473842805533 ], [ 110.826474961129961, -7.551427789038395 ], [ 110.826404848104346, -7.550735825394559 ], [ 110.826377759812019, -7.550506333244027 ], [ 110.826469485241915, -7.550345511720617 ], [ 110.82657186634647, -7.5511055245393 ] ] ] } },
{ "type": "Feature", "properties": { "OBJECTID_1": 362, "KAB_1": "Kota Surakarta", "KECAMATAN": "Kec. Banjarsari", "RW": "XIV", "RT": "4", "KELURAHAN": "Nusukan", "Luas_Ha": 0.094, "Status": "Kumuh Ilegal" }, "geometry": { "type": "Polygon", "coordinates": [ [ [ 110.826364432589628, -7.549741209661391 ], [ 110.826414230419346, -7.549935333993312 ], [ 110.826469485241915, -7.550345511720617 ], [ 110.826377759812019, -7.550506333244027 ], [ 110.826369344419305, -7.550435025323067 ], [ 110.82626774169097, -7.549733713048371 ], [ 110.826364432589628, -7.549741209661391 ] ] ] } },
{ "type": "Feature", "properties": { "OBJECTID_1": 90, "KAB_1": "Kota Surakarta", "KECAMATAN": "Kec. Banjarsari", "RW": "II", "RT": "7", "KELURAHAN": "Mangkubumen", "Luas_Ha": 1.174, "Status": "Kumuh Ilegal" }, "geometry": { "type": "Polygon", "coordinates": [ [ [ 110.818008012856993, -7.555863665055697 ], [ 110.818038678914419, -7.555970938111117 ], [ 110.818067297714165, -7.556358671287302 ], [ 110.818081479944652, -7.556856493634029 ], [ 110.818086243046665, -7.556937868910403 ], [ 110.817562286142447, -7.557044395849077 ], [ 110.817477938550979, -7.556982617374852 ], [ 110.817343538540868, -7.556913441180868 ], [ 110.8173806330134, -7.556421548026227 ], [ 110.816844589086699, -7.556410553687761 ], [ 110.816830308962722, -7.556148475739871 ], [ 110.817251281789368, -7.556030181530574 ], [ 110.817657843708915, -7.55596214150566 ], [ 110.817693882170303, -7.55581496585359 ], [ 110.817769452148653, -7.555768327020914 ], [ 110.817955652987365, -7.555712446187098 ], [ 110.817981201001345, -7.555769872600053 ], [ 110.818008012856993, -7.555863665055697 ] ] ] } },
{ "type": "Feature", "properties": { "OBJECTID_1": 125, "KAB_1": "Kota Surakarta", "KECAMATAN": "Kec. Banjarsari", "RW": "VI", "RT": "3", "KELURAHAN": "Kestalan", "Luas_Ha": 0.415, "Status": "Kumuh Ilegal" }, "geometry": { "type": "Polygon", "coordinates": [ [ [ 110.820570983058047, -7.557319105974499 ], [ 110.820685228813232, -7.557335440599864 ], [ 110.820735850695726, -7.557342721467218 ], [ 110.820722838813126, -7.557378108327089 ], [ 110.820624240472725, -7.557646251097117 ], [ 110.820525918857214, -7.557612703608354 ], [ 110.8204707048112, -7.557732348267176 ], [ 110.820415557886861, -7.557691638935363 ], [ 110.820372398023437, -7.557662901084383 ], [ 110.820295795425167, -7.557788621959996 ], [ 110.820254595611843, -7.557770330877359 ], [ 110.819975638211972, -7.557661826748929 ], [ 110.819811571222814, -7.55761564770719 ], [ 110.819827808137987, -7.557290211875466 ], [ 110.820223557746431, -7.557269433321645 ], [ 110.820570983058047, -7.557319105974499 ] ] ] } },
{ "type": "Feature", "properties": { "OBJECTID_1": 133, "KAB_1": "Kota Surakarta", "KECAMATAN": "Kec. Banjarsari", "RW": "XIII", "RT": "1", "KELURAHAN": "Gilingan", "Luas_Ha": 0.972, "Status": "Kumuh Ilegal" }, "geometry": { "type": "Polygon", "coordinates": [ [ [ 110.826254245892642, -7.555507783068705 ], [ 110.826285348769602, -7.555572745397043 ], [ 110.826454376348124, -7.555727182949621 ], [ 110.826583855204149, -7.555816984947415 ], [ 110.826609334166122, -7.555834520209845 ], [ 110.827008632417034, -7.556118194427659 ], [ 110.826975570025411, -7.556186465528251 ], [ 110.826121024953423, -7.555940006073168 ], [ 110.824381683511135, -7.555721521151346 ], [ 110.824564563066417, -7.555652181566591 ], [ 110.825341825625273, -7.555221691577243 ], [ 110.825186159449459, -7.555468421374232 ], [ 110.825473956093177, -7.555504436170573 ], [ 110.825950635078527, -7.555522576716162 ], [ 110.826094532705881, -7.555543575752897 ], [ 110.826254245892642, -7.555507783068705 ] ] ] } },
{ "type": "Feature", "properties": { "OBJECTID_1": 423, "KAB_1": "Kota Surakarta", "KECAMATAN": "Kec. Pasar Kliwon", "RW": "IV", "RT": "1", "KELURAHAN": "Sangkrah", "Luas_Ha": 0.224, "Status": "Kumuh Ilegal" }, "geometry": { "type": "Polygon", "coordinates": [ [ [ 110.834317569938719, -7.574316849000421 ], [ 110.83412569370752, -7.574599970564329 ], [ 110.834029800647741, -7.574475480607157 ], [ 110.833887850690516, -7.574362460201358 ], [ 110.83379961627881, -7.574280095313926 ], [ 110.833788900435295, -7.574267668767908 ], [ 110.833740159031592, -7.574211144404239 ], [ 110.833705655543625, -7.574119226939297 ], [ 110.833728765758707, -7.573899048083815 ], [ 110.834317569938719, -7.574316849000421 ] ] ] } },
{ "type": "Feature", "properties": { "OBJECTID_1": 425, "KAB_1": "Kota Surakarta", "KECAMATAN": "Kec. Pasar Kliwon", "RW": "IV", "RT": "2", "KELURAHAN": "Sangkrah", "Luas_Ha": 0.24, "Status": "Kumuh Ilegal" }, "geometry": { "type": "Polygon", "coordinates": [ [ [ 110.834778556524597, -7.574643953729128 ], [ 110.83461299665187, -7.574908975095246 ], [ 110.834532392786969, -7.574839459951059 ], [ 110.834401942516436, -7.574762823162765 ], [ 110.834286831402764, -7.574712998194366 ], [ 110.834227350775436, -7.574707231543713 ], [ 110.834197837226, -7.574720604326108 ], [ 110.834189599072957, -7.574724337063722 ], [ 110.83418512910869, -7.574726362503181 ], [ 110.834139076689979, -7.574728259040049 ], [ 110.834110301708833, -7.574709101957507 ], [ 110.834087287585547, -7.574678458125971 ], [ 110.83412569370752, -7.574599970564329 ], [ 110.834317569938719, -7.574316849000421 ], [ 110.834778556524597, -7.574643953729128 ] ] ] } },
{ "type": "Feature", "properties": { "OBJECTID_1": 427, "KAB_1": "Kota Surakarta", "KECAMATAN": "Kec. Pasar Kliwon", "RW": "IV", "RT": "3", "KELURAHAN": "Sangkrah", "Luas_Ha": 0.195, "Status": "Kumuh Ilegal" }, "geometry": { "type": "Polygon", "coordinates": [ [ [ 110.835182490824792, -7.574934268344503 ], [ 110.834974702308585, -7.575215613111366 ], [ 110.834963989219915, -7.575205326806882 ], [ 110.834924629082849, -7.575168267947347 ], [ 110.834896854789463, -7.575142117160985 ], [ 110.834663907692644, -7.574950920330355 ], [ 110.834616793762848, -7.574912250175212 ], [ 110.83461299665187, -7.574908975095246 ], [ 110.834778556524597, -7.574643953729128 ], [ 110.834989722648018, -7.574793790741444 ], [ 110.835145312774827, -7.574904193609581 ], [ 110.835182490824792, -7.574934268344503 ] ] ] } },
{ "type": "Feature", "properties": { "OBJECTID_1": 429, "KAB_1": "Kota Surakarta", "KECAMATAN": "Kec. Pasar Kliwon", "RW": "IV", "RT": "4", "KELURAHAN": "Sangkrah", "Luas_Ha": 0.441, "Status": "Kumuh Ilegal" }, "geometry": { "type": "Polygon", "coordinates": [ [ [ 110.835763944995875, -7.575404636356317 ], [ 110.835421388947864, -7.57596779807416 ], [ 110.835320681714762, -7.575756889400702 ], [ 110.835224263282342, -7.575562930347123 ], [ 110.835184548597923, -7.575483039089733 ], [ 110.835117435931494, -7.575362388395584 ], [ 110.835063731882002, -7.575301098833094 ], [ 110.834974702308585, -7.575215613111366 ], [ 110.835182490824792, -7.574934268344503 ], [ 110.8352801774802, -7.575013292337537 ], [ 110.835763944995875, -7.575404636356317 ] ] ] } },
{ "type": "Feature", "properties": { "OBJECTID_1": 439, "KAB_1": "Kota Surakarta", "KECAMATAN": "Kec. Pasar Kliwon", "RW": "V", "RT": "1", "KELURAHAN": "Sangkrah", "Luas_Ha": 0.291, "Status": "Kumuh Ilegal" }, "geometry": { "type": "Polygon", "coordinates": [ [ [ 110.836046601954735, -7.575599602576538 ], [ 110.83559043443897, -7.576259693336974 ], [ 110.835548846771388, -7.576220327038489 ], [ 110.835498990802989, -7.576130317984899 ], [ 110.835421388947864, -7.57596779807416 ], [ 110.835763944995875, -7.575404636356317 ], [ 110.836046601954735, -7.575599602576538 ] ] ] } },
{ "type": "Feature", "properties": { "OBJECTID_1": 441, "KAB_1": "Kota Surakarta", "KECAMATAN": "Kec. Pasar Kliwon", "RW": "V", "RT": "2", "KELURAHAN": "Sangkrah", "Luas_Ha": 0.377, "Status": "Kumuh Ilegal" }, "geometry": { "type": "Polygon", "coordinates": [ [ [ 110.836347190232658, -7.575806936302452 ], [ 110.836222643416789, -7.575968369681344 ], [ 110.836223761307892, -7.57599440995453 ], [ 110.835905258165624, -7.576495949124531 ], [ 110.83587111205874, -7.576480844413847 ], [ 110.83573298816188, -7.576394632059971 ], [ 110.83559043443897, -7.576259693336974 ], [ 110.836046601954735, -7.575599602576538 ], [ 110.836069935426096, -7.575615696420933 ], [ 110.836347190232658, -7.575806936302452 ] ] ] } },
{ "type": "Feature", "properties": { "OBJECTID_1": 442, "KAB_1": "Kota Surakarta", "KECAMATAN": "Kec. Pasar Kliwon", "RW": "V", "RT": "3", "KELURAHAN": "Sangkrah", "Luas_Ha": 0.179, "Status": "Kumuh Ilegal" }, "geometry": { "type": "Polygon", "coordinates": [ [ [ 110.836897869666544, -7.5761867718633 ], [ 110.836769760955562, -7.576375271508281 ], [ 110.836620560340393, -7.57626164500437 ], [ 110.836480343680236, -7.576154860371848 ], [ 110.836391620363742, -7.576094993371855 ], [ 110.836223761307892, -7.57599440995453 ], [ 110.836222643416789, -7.575968369681344 ], [ 110.836347190232658, -7.575806936302452 ], [ 110.836897869666544, -7.5761867718633 ] ] ] } },
{ "type": "Feature", "properties": { "OBJECTID_1": 443, "KAB_1": "Kota Surakarta", "KECAMATAN": "Kec. Pasar Kliwon", "RW": "V", "RT": "4", "KELURAHAN": "Sangkrah", "Luas_Ha": 0.311, "Status": "Kumuh Ilegal" }, "geometry": { "type": "Polygon", "coordinates": [ [ [ 110.837717764018933, -7.576758447019107 ], [ 110.837506610536892, -7.576976162477975 ], [ 110.836957880591854, -7.576518736203401 ], [ 110.83695511834415, -7.57651643394348 ], [ 110.836769760955562, -7.576375271508281 ], [ 110.836897869666544, -7.5761867718633 ], [ 110.837300527910642, -7.576464507840766 ], [ 110.837717764018933, -7.576758447019107 ] ] ] } },
{ "type": "Feature", "properties": { "OBJECTID_1": 445, "KAB_1": "Kota Surakarta", "KECAMATAN": "Kec. Pasar Kliwon", "RW": "VI", "RT": "1", "KELURAHAN": "Sangkrah", "Luas_Ha": 0.293, "Status": "Kumuh Ilegal" }, "geometry": { "type": "Polygon", "coordinates": [ [ [ 110.836620560340393, -7.57626164500437 ], [ 110.836322930619446, -7.576618479226199 ], [ 110.83629320613872, -7.576609286669391 ], [ 110.836265295596149, -7.576602591405357 ], [ 110.83600540788747, -7.576540250165285 ], [ 110.835905258165624, -7.576495949124531 ], [ 110.836223761307892, -7.57599440995453 ], [ 110.836391620363742, -7.576094993371855 ], [ 110.836480343680236, -7.576154860371848 ], [ 110.836620560340393, -7.57626164500437 ] ] ] } },
{ "type": "Feature", "properties": { "OBJECTID_1": 446, "KAB_1": "Kota Surakarta", "KECAMATAN": "Kec. Pasar Kliwon", "RW": "VI", "RT": "2", "KELURAHAN": "Sangkrah", "Luas_Ha": 0.225, "Status": "Kumuh Ilegal" }, "geometry": { "type": "Polygon", "coordinates": [ [ [ 110.836769760955562, -7.576375271508281 ], [ 110.83695511834415, -7.57651643394348 ], [ 110.836957880591854, -7.576518736203401 ], [ 110.836716818766206, -7.576839244441904 ], [ 110.836460357916351, -7.576679773853367 ], [ 110.836373787556283, -7.576634208002218 ], [ 110.836342533023611, -7.576624541783815 ], [ 110.836322930619446, -7.576618479226199 ], [ 110.836620560340393, -7.57626164500437 ], [ 110.836769760955562, -7.576375271508281 ] ] ] } },
{ "type": "Feature", "properties": { "OBJECTID_1": 447, "KAB_1": "Kota Surakarta", "KECAMATAN": "Kec. Pasar Kliwon", "RW": "VI", "RT": "3", "KELURAHAN": "Sangkrah", "Luas_Ha": 0.339, "Status": "Kumuh Ilegal" }, "geometry": { "type": "Polygon", "coordinates": [ [ [ 110.837506610536892, -7.576976162477975 ], [ 110.837194164137927, -7.577290829758293 ], [ 110.836969913214347, -7.577038966980576 ], [ 110.836937322752931, -7.57701150741492 ], [ 110.836794642337665, -7.576891290904775 ], [ 110.836778090650057, -7.576877344375228 ], [ 110.836716818766206, -7.576839244441904 ], [ 110.836957880591854, -7.576518736203401 ], [ 110.837506610536892, -7.576976162477975 ] ] ] } },
{ "type": "Feature", "properties": { "OBJECTID_1": 142, "KAB_1": "Kota Surakarta", "KECAMATAN": "Kec. Pasar Kliwon", "RW": "I", "RT": "2", "KELURAHAN": "Baluwarti", "Luas_Ha": 0.556, "Status": "Kumuh Cagar Budaya" }, "geometry": { "type": "Polygon", "coordinates": [ [ [ 110.825587381756321, -7.577100893400947 ], [ 110.825439428345348, -7.577580023384423 ], [ 110.825304813598493, -7.577552390889083 ], [ 110.825093110863477, -7.577502064315257 ], [ 110.824887206056701, -7.577450282710049 ], [ 110.825073443400512, -7.576576786026455 ], [ 110.825460173407123, -7.576663700251181 ], [ 110.825382102571055, -7.576956852542081 ], [ 110.825374369598478, -7.576988961652633 ], [ 110.825587381756321, -7.577100893400947 ] ] ] } },
{ "type": "Feature", "properties": { "OBJECTID_1": 143, "KAB_1": "Kota Surakarta", "KECAMATAN": "Kec. Pasar Kliwon", "RW": "I", "RT": "3", "KELURAHAN": "Baluwarti", "Luas_Ha": 0.225, "Status": "Kumuh Cagar Budaya" }, "geometry": { "type": "Polygon", "coordinates": [ [ [ 110.825439428345348, -7.577580023384423 ], [ 110.825587381756321, -7.577100893400947 ], [ 110.825965565983239, -7.577299617582306 ], [ 110.82584683599022, -7.577663652035542 ], [ 110.825439428345348, -7.577580023384423 ] ] ] } },
{ "type": "Feature", "properties": { "OBJECTID_1": 146, "KAB_1": "Kota Surakarta", "KECAMATAN": "Kec. Pasar Kliwon", "RW": "II", "RT": "4", "KELURAHAN": "Baluwarti", "Luas_Ha": 0.109, "Status": "Kumuh Cagar Budaya" }, "geometry": { "type": "Polygon", "coordinates": [ [ [ 110.824704084190827, -7.575645292913726 ], [ 110.824669015141282, -7.575806487529986 ], [ 110.824164669908043, -7.575677359557559 ], [ 110.824122466210952, -7.575666552814202 ], [ 110.824168301397449, -7.575518797255492 ], [ 110.824202580384181, -7.575526890705923 ], [ 110.824704084190827, -7.575645292913726 ] ] ] } },
{ "type": "Feature", "properties": { "OBJECTID_1": 147, "KAB_1": "Kota Surakarta", "KECAMATAN": "Kec. Pasar Kliwon", "RW": "III", "RT": "3", "KELURAHAN": "Baluwarti", "Luas_Ha": 0.359, "Status": "Kumuh Cagar Budaya" }, "geometry": { "type": "Polygon", "coordinates": [ [ [ 110.8247012323192, -7.577506245948185 ], [ 110.824510348829932, -7.578276393501269 ], [ 110.824153782906919, -7.578188705428701 ], [ 110.824327405445061, -7.577430272487522 ], [ 110.8247012323192, -7.577506245948185 ] ] ] } },
{ "type": "Feature", "properties": { "OBJECTID_1": 243, "KAB_1": "Kota Surakarta", "KECAMATAN": "Kec. Pasar Kliwon", "RW": "IV", "RT": "2", "KELURAHAN": "Baluwarti", "Luas_Ha": 0.342, "Status": "Kumuh Cagar Budaya" }, "geometry": { "type": "Polygon", "coordinates": [ [ [ 110.824583426321837, -7.579909958256013 ], [ 110.824541854389508, -7.579905060446306 ], [ 110.824470778636467, -7.580199062904101 ], [ 110.824459440577243, -7.580245962051918 ], [ 110.823720179928543, -7.580055413413747 ], [ 110.823738314024837, -7.579940315239304 ], [ 110.8237393416223, -7.579927970095826 ], [ 110.823757051658319, -7.579850251258633 ], [ 110.823794059321358, -7.579700862172797 ], [ 110.82458500978538, -7.579903884712086 ], [ 110.824583426321837, -7.579909958256013 ] ] ] } },
{ "type": "Feature", "properties": { "OBJECTID_1": 245, "KAB_1": "Kota Surakarta", "KECAMATAN": "Kec. Pasar Kliwon", "RW": "IV", "RT": "3", "KELURAHAN": "Baluwarti", "Luas_Ha": 0.102, "Status": "Kumuh Cagar Budaya" }, "geometry": { "type": "Polygon", "coordinates": [ [ [ 110.824583426321837, -7.579909958256013 ], [ 110.824555343466756, -7.580017614188926 ], [ 110.824902656751775, -7.580117165282278 ], [ 110.824857658392062, -7.5803088859942 ], [ 110.824499331376344, -7.580207169406446 ], [ 110.824470778636467, -7.580199062904101 ], [ 110.824541854389508, -7.579905060446306 ], [ 110.824583426321837, -7.579909958256013 ] ] ] } },
{ "type": "Feature", "properties": { "OBJECTID_1": 251, "KAB_1": "Kota Surakarta", "KECAMATAN": "Kec. Pasar Kliwon", "RW": "VI", "RT": "1", "KELURAHAN": "Baluwarti", "Luas_Ha": 0.159, "Status": "Kumuh Cagar Budaya" }, "geometry": { "type": "Polygon", "coordinates": [ [ [ 110.826680429116024, -7.580163205635701 ], [ 110.826760333021724, -7.58019364092144 ], [ 110.826664356270243, -7.580459842773607 ], [ 110.826663066481785, -7.580459294091018 ], [ 110.826194611199568, -7.580292525436203 ], [ 110.826234319847231, -7.580149199629443 ], [ 110.826255523159531, -7.580157647724245 ], [ 110.826274740730369, -7.580083461720165 ], [ 110.826591327785493, -7.580141028102675 ], [ 110.82665368571493, -7.580153019486791 ], [ 110.826680429116024, -7.580163205635701 ] ] ] } },
{ "type": "Feature", "properties": { "OBJECTID_1": 252, "KAB_1": "Kota Surakarta", "KECAMATAN": "Kec. Pasar Kliwon", "RW": "VI", "RT": "2", "KELURAHAN": "Baluwarti", "Luas_Ha": 0.197, "Status": "Kumuh Cagar Budaya" }, "geometry": { "type": "Polygon", "coordinates": [ [ [ 110.826680429116024, -7.580163205635701 ], [ 110.82665368571493, -7.580153019486791 ], [ 110.826591327785493, -7.580141028102675 ], [ 110.826274740730369, -7.580083461720165 ], [ 110.826255523159531, -7.580157647724245 ], [ 110.826234319847231, -7.580149199629443 ], [ 110.826359101546714, -7.579698806496787 ], [ 110.826760261729333, -7.579811811347101 ], [ 110.826680429116024, -7.580163205635701 ] ] ] } },
{ "type": "Feature", "properties": { "OBJECTID_1": 256, "KAB_1": "Kota Surakarta", "KECAMATAN": "Kec. Pasar Kliwon", "RW": "VIII", "RT": "1", "KELURAHAN": "Baluwarti", "Luas_Ha": 0.207, "Status": "Kumuh Cagar Budaya" }, "geometry": { "type": "Polygon", "coordinates": [ [ [ 110.829446518951585, -7.581499182089086 ], [ 110.829419560986253, -7.581736592026999 ], [ 110.829405223408514, -7.581846304333942 ], [ 110.82940217730885, -7.581869612986679 ], [ 110.829257832893461, -7.581821118501535 ], [ 110.828894965178335, -7.581699209197864 ], [ 110.828900451558596, -7.581667124472497 ], [ 110.828935394278872, -7.581462765246025 ], [ 110.829446534777276, -7.581458973988222 ], [ 110.829446518951585, -7.581499182089086 ] ] ] } },
{ "type": "Feature", "properties": { "OBJECTID_1": 257, "KAB_1": "Kota Surakarta", "KECAMATAN": "Kec. Pasar Kliwon", "RW": "VIII", "RT": "2", "KELURAHAN": "Baluwarti", "Luas_Ha": 0.068, "Status": "Kumuh Cagar Budaya" }, "geometry": { "type": "Polygon", "coordinates": [ [ [ 110.829405223408514, -7.581846304333942 ], [ 110.829419560986253, -7.581736592026999 ], [ 110.829446518951585, -7.581499182089086 ], [ 110.82958759070506, -7.581496852000557 ], [ 110.829581778221637, -7.581662121779535 ], [ 110.829578668407265, -7.58169763576302 ], [ 110.829546820325362, -7.581896567032189 ], [ 110.829405223408514, -7.581846304333942 ] ] ] } },
{ "type": "Feature", "properties": { "OBJECTID_1": 258, "KAB_1": "Kota Surakarta", "KECAMATAN": "Kec. Pasar Kliwon", "RW": "VIII", "RT": "3", "KELURAHAN": "Baluwarti", "Luas_Ha": 0.301, "Status": "Kumuh Cagar Budaya" }, "geometry": { "type": "Polygon", "coordinates": [ [ [ 110.82958759070506, -7.581496852000557 ], [ 110.829446518951585, -7.581499182089086 ], [ 110.829446534777276, -7.581458973988222 ], [ 110.828935394278872, -7.581462765246025 ], [ 110.828942898743719, -7.58141887939697 ], [ 110.829000613409022, -7.581043146692094 ], [ 110.82960113543372, -7.581111688960067 ], [ 110.829600973156332, -7.581116315768806 ], [ 110.82958759070506, -7.581496852000557 ] ] ] } },
{ "type": "Feature", "properties": { "OBJECTID_1": 259, "KAB_1": "Kota Surakarta", "KECAMATAN": "Kec. Pasar Kliwon", "RW": "XI", "RT": "2", "KELURAHAN": "Baluwarti", "Luas_Ha": 0.002, "Status": "Kumuh Cagar Budaya" }, "geometry": { "type": "Polygon", "coordinates": [ [ [ 110.830785128084159, -7.578262573425595 ], [ 110.830784521607498, -7.57826490517014 ], [ 110.830752131059953, -7.578257921967637 ], [ 110.830399572663993, -7.578185983668067 ], [ 110.830401314466371, -7.578178148060812 ], [ 110.830785128084159, -7.578262573425595 ] ] ] } },
{ "type": "Feature", "properties": { "OBJECTID_1": 261, "KAB_1": "Kota Surakarta", "KECAMATAN": "Kec. Pasar Kliwon", "RW": "XII", "RT": "1", "KELURAHAN": "Baluwarti", "Luas_Ha": 0.537, "Status": "Kumuh Cagar Budaya" }, "geometry": { "type": "Polygon", "coordinates": [ [ [ 110.830785128084159, -7.578262573425595 ], [ 110.830401314466371, -7.578178148060812 ], [ 110.830474059612001, -7.577850945650124 ], [ 110.83058198607506, -7.577870133775657 ], [ 110.830805427390302, -7.576903308153795 ], [ 110.831098023981525, -7.576972829363817 ], [ 110.831117556257126, -7.576977240384033 ], [ 110.830847664244914, -7.578021876393288 ], [ 110.830836077531117, -7.578066723163479 ], [ 110.830785128084159, -7.578262573425595 ] ] ] } }
]
}
